%YAML 1.1
%TAG !u! tag:unity3d.com,2011:
--- !u!74 &7400000
AnimationClip:
  m_ObjectHideFlags: 0
  m_PrefabParentObject: {fileID: 0}
  m_PrefabInternal: {fileID: 0}
  m_Name: Running
  serializedVersion: 6
  m_Legacy: 0
  m_Compressed: 0
  m_UseHighQualityCurve: 1
  m_RotationCurves: []
  m_CompressedRotationCurves: []
  m_EulerCurves: []
  m_PositionCurves: []
  m_ScaleCurves: []
  m_FloatCurves: []
  m_PPtrCurves:
  - curve:
    - time: 0
      value: {fileID: 21300000, guid: e420077caed84cf4a83202479a243ac3, type: 3}
    - time: 0.083333336
      value: {fileID: 21300000, guid: c87745214884aec42b91f2bc02f4c139, type: 3}
    - time: 0.16666667
      value: {fileID: 21300000, guid: 04d96a8b4260a924b8a370db2f7db287, type: 3}
    - time: 0.25
      value: {fileID: 21300000, guid: 7352bbabaa0603044bbed9168532f256, type: 3}
    - time: 0.33333334
      value: {fileID: 21300000, guid: 9afafdc355909a64aba4454971df25b4, type: 3}
    - time: 0.41666666
      value: {fileID: 21300000, guid: 693d3a5275d92554789ffb64b299ab17, type: 3}
    - time: 0.5
      value: {fileID: 21300000, guid: 4ad7888880f1ab3449c1def4d0af3891, type: 3}
    - time: 0.5833333
      value: {fileID: 21300000, guid: 180a4d8bff82eb745a336f2c4deeca4c, type: 3}
    attribute: m_Sprite
    path: 
    classID: 212
    script: {fileID: 0}
  m_SampleRate: 12
  m_WrapMode: 0
  m_Bounds:
    m_Center: {x: 0, y: 0, z: 0}
    m_Extent: {x: 0, y: 0, z: 0}
  m_ClipBindingConstant:
    genericBindings:
    - serializedVersion: 2
      path: 0
      attribute: 0
      script: {fileID: 0}
      typeID: 212
      customType: 23
      isPPtrCurve: 1
    pptrCurveMapping:
    - {fileID: 21300000, guid: e420077caed84cf4a83202479a243ac3, type: 3}
    - {fileID: 21300000, guid: c87745214884aec42b91f2bc02f4c139, type: 3}
    - {fileID: 21300000, guid: 04d96a8b4260a924b8a370db2f7db287, type: 3}
    - {fileID: 21300000, guid: 7352bbabaa0603044bbed9168532f256, type: 3}
    - {fileID: 21300000, guid: 9afafdc355909a64aba4454971df25b4, type: 3}
    - {fileID: 21300000, guid: 693d3a5275d92554789ffb64b299ab17, type: 3}
    - {fileID: 21300000, guid: 4ad7888880f1ab3449c1def4d0af3891, type: 3}
    - {fileID: 21300000, guid: 180a4d8bff82eb745a336f2c4deeca4c, type: 3}
  m_AnimationClipSettings:
    serializedVersion: 2
    m_AdditiveReferencePoseClip: {fileID: 0}
    m_AdditiveReferencePoseTime: 0
    m_StartTime: 0
    m_StopTime: 0.6666666
    m_OrientationOffsetY: 0
    m_Level: 0
    m_CycleOffset: 0
    m_HasAdditiveReferencePose: 0
    m_LoopTime: 1
    m_LoopBlend: 0
    m_LoopBlendOrientation: 0
    m_LoopBlendPositionY: 0
    m_LoopBlendPositionXZ: 0
    m_KeepOriginalOrientation: 0
    m_KeepOriginalPositionY: 1
    m_KeepOriginalPositionXZ: 0
    m_HeightFromFeet: 0
    m_Mirror: 0
  m_EditorCurves: []
  m_EulerEditorCurves: []
  m_HasGenericRootTransform: 0
  m_HasMotionFloatCurves: 0
  m_GenerateMotionCurves: 0
  m_Events: []
